{
    "status": 0,
    "value": [
        {
            "element-6066-11e4-a52e-4f735466cecf": "1",
            "ELEMENT": "1"
        },
        {
            "element-6066-11e4-a52e-4f735466cecf": "2",
            "ELEMENT": "2"
        },
        {
            "element-6066-11e4-a52e-4f735466cecf": "3",
            "ELEMENT": "3"
        },
        {
            "element-6066-11e4-a52e-4f735466cecf": "4",
            "ELEMENT": "4"
        },
        {
            "element-6066-11e4-a52e-4f735466cecf": "5",
            "ELEMENT": "5"
        }
    ],
    "sessionId": "f0777fa8-de82-4896-b386-d706e4195189"
}