{
    "status": 0,
    "value": "Rather than \"run\" widgets, you must add them from Home screen. How? Maintain the finger pressed to some free space of the screen. A menu will appear where you must firstly select \"Widgets\" and secondly \"Pen-It\".\nNote that the way of adding widgets may differ in other devices.\n\nThe \"Little\" format (2x1) has smaller screen size and shows brief info: The name of the event to be reminded, its description (optional) and its date/time deadline (optional). The description must not have more than 2 lines. When you enter a date/time deadline, the widget will show in blue color how many days or hours remain for reaching the deadline, or in red color the days or hours since the deadline expires.\n\nThe \"Big\" format (2x3) has got a bigger screen size that shows up to 10 reminders related to the event of the Pen-It widget. Such reminders are normally items that you need to remember, just as you would make a typical check-list or a To Do list on paper or on a Post-It. So, a really useful 'digital' tool.\n\nThese reminders can be edited, erased and even crossed-out, just as you would do on paper or on a Post-It. All crossed-out reminders can be re-opened whenever you want.\n\nThis bigger format obviously contains the same elements described in the \"Little\" format: Name of the event, description, deadline, remaining date/time, etc...\n\nPlease note that the name of the event accepts only the first 19 characters.",
    "sessionId": "87fb656a-9abc-4132-9eb6-01ea50e0d874"
}