{
    "status": 0,
    "value": {
        "element-6066-11e4-a52e-4f735466cecf": "19000000-0000-0000-176C-010000000000",
        "ELEMENT": "19000000-0000-0000-176C-010000000000"
    },
    "sessionId": "61f12896-6301-47f4-aad0-e1ae191ec21d"
}