{
    "status": 0,
    "value": {
        "element-6066-11e4-a52e-4f735466cecf": "3C000000-0000-0000-416D-010000000000",
        "ELEMENT": "3C000000-0000-0000-416D-010000000000"
    },
    "sessionId": "62ef2d8b-bc1c-4958-b79e-d23a421c7dde"
}