{
    "status": 0,
    "value": {
        "element-6066-11e4-a52e-4f735466cecf": "3C000000-0000-0000-5E85-000000000000",
        "ELEMENT": "3C000000-0000-0000-5E85-000000000000"
    },
    "sessionId": "ea0ab712-39af-4f3e-a675-ec40d7f87441"
}