{
    "status": 0,
    "value": {
        "element-6066-11e4-a52e-4f735466cecf": "3C000000-0000-0000-4E2E-000000000000",
        "ELEMENT": "3C000000-0000-0000-4E2E-000000000000"
    },
    "sessionId": "c09c746d-a863-4e83-90df-ad1fdb92c7c2"
}