{
    "status": 0,
    "value": "Read carefully the tutorial below. It will only take a couple of minutes and you will find useful information in order to use this App-widget.",
    "sessionId": "019cca99-9018-4db7-a2bd-2e8f1a641128"
}